<svg width="56" height="56" viewBox="0 0 56 56" fill="none" xmlns="http://www.w3.org/2000/svg">
<g clip-path="url(#clip0)">
<g filter="url(#filter0_d)">
<rect width="55.021" height="55.021" rx="4" fill="#4DA1FF"/>
</g>
<path fill-rule="evenodd" clip-rule="evenodd" d="M40.4843 35.2395L38.886 33.6411C38.7415 33.4981 38.7608 32.8364 38.7608 32.6329V25.7552C38.7608 21.0991 35.5751 17.0138 31.1844 15.5502V15.4223C31.1844 13.5708 29.6177 12 27.7566 12C25.901 12 24.3274 13.5708 24.3274 15.4223V15.5502C19.9368 17.0138 16.7524 21.0991 16.7524 25.7552V32.6329C16.7524 32.8364 16.7703 33.4981 16.6273 33.6411L15.0289 35.2395C14.5337 35.7347 14 36.6535 14 37.5036C14 38.5765 14.9725 39.45 16.1678 39.45H22.1871C22.7525 41.842 24.912 43.6288 27.4815 43.6288C30.051 43.6288 32.692 41.9025 33.2587 39.5105L39.3454 39.45C40.5407 39.45 41.5119 38.5765 41.5119 37.5036C41.5119 36.6563 40.9795 35.736 40.4843 35.2395ZM27.4815 41.2106C26.2642 41.2106 25.2133 40.4871 24.7373 39.45H30.2243C29.7484 40.4871 28.6975 41.2106 27.4815 41.2106ZM31.8832 36.7594C31.6934 36.7127 32.073 36.7127 31.8832 36.7594H23.63C23.4402 36.7127 23.8199 36.7127 23.63 36.7594H16.7524C16.8129 36.5228 16.7263 36.7842 16.7524 36.7594L18.3439 35.3481C18.9395 34.7539 19.5035 33.4747 19.5035 32.6329V25.7552C19.5035 21.8377 21.9643 18.5585 25.8226 17.6355C26.3673 17.5048 26.7511 17.0193 26.7511 16.4594V15.4223C26.7511 14.9189 27.2518 14.751 27.7566 14.751C28.2752 14.751 28.7594 14.9092 28.7594 15.4223V16.4594C28.7594 17.0193 29.1445 17.5048 29.6892 17.6355C33.5476 18.5585 36.0098 21.8377 36.0098 25.7552V32.6329C36.0098 33.4747 36.5737 34.7539 37.1693 35.3495L38.7663 36.9451C38.7924 36.9713 38.736 36.7278 38.7608 36.7594H31.8832Z" fill="white"/>
</g>
<defs>
<filter id="filter0_d" x="-16" y="-15" width="89.021" height="89.021" filterUnits="userSpaceOnUse" color-interpolation-filters="sRGB">
<feFlood flood-opacity="0" result="BackgroundImageFix"/>
<feColorMatrix in="SourceAlpha" type="matrix" values="0 0 0 0 0 0 0 0 0 0 0 0 0 0 0 0 0 0 127 0"/>
<feOffset dx="1" dy="2"/>
<feGaussianBlur stdDeviation="8.5"/>
<feColorMatrix type="matrix" values="0 0 0 0 0 0 0 0 0 0 0 0 0 0 0 0 0 0 0.07 0"/>
<feBlend mode="normal" in2="BackgroundImageFix" result="effect1_dropShadow"/>
<feBlend mode="normal" in="SourceGraphic" in2="effect1_dropShadow" result="shape"/>
</filter>
<clipPath id="clip0">
<rect width="56" height="56" fill="white"/>
</clipPath>
</defs>
</svg>
