<svg width="11" height="10" viewBox="0 0 11 10" fill="none" xmlns="http://www.w3.org/2000/svg">
<path fill-rule="evenodd" clip-rule="evenodd" d="M1.69478 4.60079L9.07673 7.74373L9.91362 0.732502L1.69478 4.60079ZM9.25104 8.23171C9.22199 8.23171 9.19315 8.22578 9.16617 8.21453L1.12288 4.78998C1.04963 4.75878 1.00169 4.68986 1.00003 4.61343C0.998582 4.537 1.04361 4.4665 1.11562 4.43254L10.0709 0.218059C10.1388 0.186067 10.2199 0.191794 10.2822 0.233463C10.3444 0.274934 10.3776 0.345436 10.3691 0.417319L9.4571 8.05654C9.44963 8.11895 9.41124 8.17463 9.35376 8.20564C9.32201 8.22302 9.28653 8.23171 9.25104 8.23171Z" fill="#4DA1FF"/>
<path d="M1.69478 4.60079L1.6309 4.46507L1.32797 4.60765L1.63602 4.7388L1.69478 4.60079ZM9.07673 7.74373L9.01797 7.88174L9.20197 7.96008L9.22568 7.76151L9.07673 7.74373ZM9.91362 0.732502L10.0626 0.75028L10.0946 0.481517L9.84974 0.596783L9.91362 0.732502ZM9.16617 8.21453L9.10741 8.35254L9.10841 8.35296L9.16617 8.21453ZM1.12288 4.78998L1.0641 4.92798L1.06412 4.92799L1.12288 4.78998ZM1.00003 4.61343L0.850061 4.61628L0.850069 4.61669L1.00003 4.61343ZM1.11562 4.43254L1.05174 4.29681L1.05162 4.29687L1.11562 4.43254ZM10.0709 0.218059L10.1348 0.353781L10.1349 0.353736L10.0709 0.218059ZM10.2822 0.233463L10.1987 0.358117L10.199 0.358299L10.2822 0.233463ZM10.3691 0.417319L10.518 0.435101L10.5181 0.43495L10.3691 0.417319ZM9.4571 8.05654L9.60604 8.07437L9.60604 8.07432L9.4571 8.05654ZM9.35376 8.20564L9.28255 8.07362L9.28174 8.07406L9.35376 8.20564ZM1.63602 4.7388L9.01797 7.88174L9.13549 7.60572L1.75354 4.46278L1.63602 4.7388ZM9.22568 7.76151L10.0626 0.75028L9.76468 0.714723L8.92779 7.72595L9.22568 7.76151ZM9.84974 0.596783L1.6309 4.46507L1.75865 4.73651L9.9775 0.868221L9.84974 0.596783ZM9.25104 8.08171C9.24239 8.08171 9.23314 8.07994 9.22393 8.07609L9.10841 8.35296C9.15315 8.37163 9.20159 8.38171 9.25104 8.38171V8.08171ZM9.22493 8.07651L1.18164 4.65197L1.06412 4.92799L9.10741 8.35254L9.22493 8.07651ZM1.18166 4.65198C1.15978 4.64266 1.15031 4.62462 1.15 4.61017L0.850069 4.61669C0.853076 4.75509 0.93948 4.8749 1.0641 4.92798L1.18166 4.65198ZM1.15001 4.61058C1.14974 4.5963 1.15821 4.57829 1.17961 4.5682L1.05162 4.29687C0.929009 4.35471 0.847428 4.47771 0.850061 4.61628L1.15001 4.61058ZM1.17949 4.56826L10.1348 0.353781L10.007 0.082338L1.05174 4.29681L1.17949 4.56826ZM10.1349 0.353736C10.1556 0.343969 10.1807 0.346076 10.1987 0.358116L10.3656 0.10881C10.2591 0.0375129 10.1219 0.0281657 10.0069 0.082383L10.1349 0.353736ZM10.199 0.358299C10.2159 0.369587 10.2218 0.385891 10.2201 0.399689L10.5181 0.43495C10.5334 0.304981 10.4729 0.180282 10.3653 0.108627L10.199 0.358299ZM10.2202 0.399538L9.30816 8.03876L9.60604 8.07432L10.518 0.435101L10.2202 0.399538ZM9.30816 8.03871C9.3067 8.05096 9.29864 8.06494 9.28255 8.07362L9.42497 8.33766C9.52384 8.28433 9.59256 8.18693 9.60604 8.07437L9.30816 8.03871ZM9.28174 8.07406C9.27279 8.07896 9.26219 8.08171 9.25104 8.08171V8.38171C9.31086 8.38171 9.37123 8.36708 9.42578 8.33722L9.28174 8.07406Z" fill="#4DA1FF"/>
<path fill-rule="evenodd" clip-rule="evenodd" d="M4.90161 9.46511C4.88272 9.46511 4.86363 9.46255 4.84475 9.45761C4.7549 9.43312 4.69347 9.35472 4.6941 9.26605L4.72004 6.10633C4.72045 6.05913 4.73871 6.01371 4.77129 5.97816L10.0034 0.265779C10.079 0.183627 10.2101 0.175135 10.2964 0.246624C10.3828 0.318507 10.3917 0.443119 10.3164 0.525272L5.13464 6.18256L5.11493 8.55571L6.25831 6.77224C6.31828 6.67903 6.44589 6.6496 6.54363 6.70648C6.64137 6.76316 6.67229 6.885 6.61253 6.97782L5.07882 9.37052C5.04043 9.43036 4.97257 9.46511 4.90161 9.46511Z" fill="#4DA1FF"/>
<path d="M4.90161 9.46511C4.88272 9.46511 4.86363 9.46255 4.84475 9.45761C4.7549 9.43312 4.69347 9.35472 4.6941 9.26605L4.72004 6.10633C4.72045 6.05913 4.73871 6.01371 4.77129 5.97816L10.0034 0.265779C10.079 0.183627 10.2101 0.175135 10.2964 0.246624C10.3828 0.318507 10.3917 0.443119 10.3164 0.525272L5.13464 6.18256L5.11493 8.55571L6.25831 6.77224C6.31828 6.67903 6.44589 6.6496 6.54363 6.70648C6.64137 6.76316 6.67229 6.885 6.61253 6.97782L5.07882 9.37052C5.04043 9.43036 4.97257 9.46511 4.90161 9.46511" stroke="#4DA1FF" stroke-width="0.3"/>
</svg>
